19.999999999999996 18.009844595301225
22.990366795580723 19.879312231199386
82.60245139062637 18.81784677235393
20.476985039212035 25.25775320590334
19.999999999999996 19.544949719460856
30.905856463406245 19.659820940188542
19.999999999999996 17.576796748148716
33.55992688831159 18.29532661522334
19.999999999999996 17.223833805393586
36.73801673953817 21.22263100368415
19.999999999999996 19.226086000398077
40.540927161893 23.182129823441237
19.999999999999996 20.487217401682333
44.847744237820756 24.04147445528933
19.999999999999996 20.267963175464125
50.32691604953045 23.491535126291165
19.999999999999996 19.0832580818974
55.79055773695218 22.23317708734235
19.999999999999996 17.388653757787257
61.469367241599755 20.627505497878865
19.999999999999996 25.63736281483039
19.999999999999996 26.476512600048814
19.999999999999996 31.756684038941142
19.999999999999996 27.994140918591008
19.999999999999996 33.534005128969476
19.999999999999996 28.568257275236956
19.999999999999996 33.287453333998386
19.999999999999996 35.34692003640682
69.55729392475111 37.48038956279463
19.999999999999996 40.108064782301696
67.70682645807699 41.6288487998119
19.999999999999996 43.73563209025582
19.999999999999996 44.073861133273724
40.1797982825798 44.029212558708196
19.999999999999996 32.70027925564655
57.74920921137151 30.462213136200415
43.8562563614304 30.363704876448484
55.4716176266119 26.71897094819481
45.998119799902376 27.870639367083268
52.189809448149425 30.55542531515037
19.999999999999996 26.353118427505034
48.224207153673916 29.957595483231742
19.999999999999996 25.69319719445657
48.040724764030024 29.13448785575109
19.999999999999996 34.50460913823268
19.999999999999996 31.614003970514993
51.80308686792192 38.819588028134135
19.999999999999996 35.93348021541133
51.79318831904862 37.538761290784855
19.999999999999996 33.26085225521158
50.660888587387475 36.24258837404466
19.999999999999996 44.31655984107358
53.044680268551105 47.950789580297496
58.883455726267094 40.084617448941025
50.55962123820859 29.922794158342665
44.45803490820137 23.15686102095682
21.45945099254451 91.84325547404902
17.48315103674773 103.18085743325058
20.98121882225168 109.14288226976609
28.508511476673934 36.10069183355245
112.07827214258343 32.202823707524246
105.56617601901787 24.037324529719022
98.0432769145117 20.099316171527533
94.12714232154892 20.743143906273318
19.999999999999996 20.885888904647675
21.2226978369246 33.4154750917076
24.639474435636295 79.73368904320212
21.550450546190184 65.25398145891423
34.3935449845825 10.880592044782555
25.24529037959025 14.998141533125159
19.999999999999996 21.55767106857842
21.990707124872408 27.166172942158745
28.574776642962334 22.509750628438095
24.525956669150723 26.552016234929358
23.50283407738918 26.08536573071436
28.943687991272338 24.053463991233
19.999999999999996 31.537751557624016
30.97913911702701 42.67649654568763
27.523510732761245 50.04883212081808
26.909963908965544 53.44956951173131
26.142799726000444 54.3514004431713
26.70949860443303 49.795049125183674
26.433271488129655 45.463020651511385
40.956743198533864 26.32619036111756
27.696583372170597 33.772000180558344
26.116704777424136 28.8693483656204
31.295538211767266 19.562668707235186
19.999999999999996 21.697461403304672
19.999999999999996 32.492555258322646
19.999999999999996 32.524628568480814
32.52919147655406 48.36428926371027
19.999999999999996 31.878293762905834
30.53001165527513 49.73657237091895
19.999999999999996 29.872683530771713
28.825441270330355 40.64082057607636
35.887468961402796 28.257589337691147
28.77745356725399 28.58703699369267
21.702763277386246 29.773013133647208
31.599024191274594 14.219459700252399
12.27895873599743 32.970135624054656
18.717101973679632 74.8740592846829
34.32821755049484 25.42132523754939
27.890284560590295 87.98903832864069
29.329377209814933 222.26369786232175
37.60608183412632 28.774486180426212
34.52556592981852 19.999999999999996
27.193285623772105 66.92088644598543
16.795746600171924 60.77614564840209
32.73262321149992 10.664160052106592
19.999999999999996 13.460790170268089
19.999999999999996 19.404292519467315
19.999999999999996 22.95307571619409
33.77718148362484 23.909964289508803
19.999999999999996 27.600535947674675
30.86339050862957 26.415069937754325
29.211409513039797 29.388824536817136
19.999999999999996 28.297985268784014
25.37190099559665 36.253905078140995
19.999999999999996 22.126763391972254
19.114404504921577 37.272648914974724
16.085737910156105 33.856432729444265
19.999999999999996 13.093040487060916
32.96900540486951 15.788608580806759
19.999999999999996 15.072855722268823
19.999999999999996 19.83109378497938
19.999999999999996 25.02535945848156
19.999999999999996 26.939213654435445
19.999999999999996 30.456397523039787
19.999999999999996 31.193734539919493
19.999999999999996 28.710426884247582
19.999999999999996 30.736156152823167
19.999999999999996 28.0555410365814
184.2031180651851 22.449313747547954
19.999999999999996 21.124084717871362
23.65845932940949 105.11077634179826
19.999999999999996 27.404119243413493
167.41180727864258 29.497410606741024
157.0135176902091 32.56218705842003
64.20467734712983 30.97318774691955
66.36983377051575 24.921530585713683
79.21799507423516 22.314498263497676
91.34162313287767 18.149756048748603
19.999999999999996 21.824956071213343
19.999999999999996 26.257268376045793
19.999999999999996 32.914801225624664
19.999999999999996 40.106405556690014
19.999999999999996 41.804758629332675
19.999999999999996 36.99217063187513
124.57594688660632 26.063907686864866
159.98210240116035 24.320493199827332
115.80280520098248 26.97584669497739
115.96278087844867 35.59710231839603
113.71093779511185 43.19026724486362
122.60826009347576 47.44326522906887
130.93456336697503 44.782052626802944
19.999999999999996 35.026921539253806
19.999999999999996 20.01163958655384
19.999999999999996 22.34012927512914
19.999999999999996 25.092114581009
19.999999999999996 35.889735035133334
19.999999999999996 46.76065055401939
19.999999999999996 51.77375799766619
19.999999999999996 49.41388681902154
180.23505131734257 39.443390752059436
179.07310146152943 23.997134309849102
169.8709906944164 24.614015466329782
171.4933141175763 22.937662699524584
165.4254063587768 33.71846900857621
169.43577279119106 39.15692652718941
172.77611132845448 47.089776178073556
183.7495941513856 49.78102543118744
19.999999999999996 52.335227905724146
51.40770884658568 203.02634885687692
47.52790817809751 199.40093121734338
55.21708762001578 187.2326012248266
66.6201630193541 19.999999999999996
175.34557309234336 82.71254825070605
181.47348493496094 94.77542825106055
191.70261127391836 97.44146507811358
19.999999999999996 89.3172691852489
19.999999999999996 73.27288636003676
56.57681558525284 186.38378244450658
19.999999999999996 45.05097641861974
19.999999999999996 39.18102808517436
34.687629014925726 189.0845478642467
19.999999999999996 33.54618359017113
19.999999999999996 28.884077345851665
19.999999999999996 26.46458717630568
19.999999999999996 22.881364659395555
19.999999999999996 23.61865197744595
19.999999999999996 21.169853434982773
19.999999999999996 23.69410277256079
19.999999999999996 23.74228904113505
19.999999999999996 22.580341624032133
19.999999999999996 24.400788833897018
19.999999999999996 27.72585299983089
19.999999999999996 32.79711534879946
19.999999999999996 32.00791304968715
19.999999999999996 33.53421066967623
174.19636393372184 29.83923859599642
19.999999999999996 28.771948630054005
19.999999999999996 24.17606745300643
19.999999999999996 22.015608215470543
19.999999999999996 23.60154257206082
19.999999999999996 33.376479614794945
19.999999999999996 42.4864097080144
167.0953978062592 46.10794738667925
19.999999999999996 51.64232934229946
145.74803182053378 51.43665462326741
19.999999999999996 49.52556573360722
44.69969336882933 140.24021158290975
19.999999999999996 42.345271270170976
37.85808995536372 122.49787023008358
19.999999999999996 34.14944793603147
28.22510656962181 103.69636072701043
19.999999999999996 26.067594626191102
21.120374113199528 103.4161363883846
19.999999999999996 20.679511154992685
19.999999999999996 16.550753573372294
19.999999999999996 21.996370063420724
19.999999999999996 31.72415094305952
19.999999999999996 36.12934044179836
19.999999999999996 47.69558718438802
19.999999999999996 51.32887725993576
79.22164170230906 54.84553670501986
78.76345793250218 57.95069111610028
19.999999999999996 70.82957526755875
19.999999999999996 72.49088023535502
61.8471801257763 75.47906994328955
19.999999999999996 47.05858936130073
33.5447907201508 80.16878492419913
26.088120336841747 83.66451864781062
29.807436445885692 87.50724006662288
38.826125068148805 84.16906074976652
48.25063858281068 19.999999999999996
49.04871534664911 81.96456543393815
55.82498535897676 34.17600775172101
55.202858678973186 27.230445022281078
19.999999999999996 24.23578928102484
19.999999999999996 22.911566500723264
19.999999999999996 26.624819797265335
19.999999999999996 23.67868235267636
19.999999999999996 27.408288115416884
19.999999999999996 22.1171301779897
19.999999999999996 25.314699308160655
19.999999999999996 30.19735078950378
19.999999999999996 40.30251532329468
19.999999999999996 44.342552093322006
86.79383423228953 41.18930334856519
19.999999999999996 40.65252650251702
89.27518800753744 35.15425031362465
19.999999999999996 33.82299457644756
32.05154536391289 93.10935949371657
19.999999999999996 28.941916444227385
23.648545272069523 94.48635863435614
19.999999999999996 19.545860240058254
19.999999999999996 13.419943693064992
19.999999999999996 12.41647312389717
19.999999999999996 20.87294801377553
19.999999999999996 30.953299567695808
108.45659922770949 36.690602447260716
19.999999999999996 41.01908630497218
117.959916079644 40.36898480231818
19.999999999999996 37.889385517208176
116.59449349378585 32.38926338149642
19.999999999999996 30.136939596224675
113.32660796732998 25.190184168603686
19.999999999999996 23.940563374664006
101.57221724063947 18.816182308089793
19.999999999999996 18.147210256613626
19.999999999999996 23.025274840250674
83.13640375974096 21.50530847285114
19.999999999999996 30.27769528730742
81.79380055023584 30.253473627940473
19.999999999999996 40.965350502262474
78.62133007492298 41.332731249917124
19.999999999999996 39.87873047837979
74.38386500580006 39.90258406939071
19.999999999999996 39.24666595005971
62.42925304780873 31.27805254580826
19.999999999999996 31.966223531123198
41.98512885799736 25.48914807610415
19.999999999999996 25.612348998570365
19.999999999999996 21.913845228404053
19.999999999999996 12.1192697343716
22.90219135168817 6.577653551997494
20.09202468002731 10.032401982234635
15.975797609411371 13.166657812523095
17.336284777352084 11.832338777940688
15.725883971269571 16.34303662502714
17.52293121859425 15.182632424377474
15.582174217809191 13.067931514324076
16.038640956021347 15.282237159547899
14.60895840032811 23.271481476306732
16.52926359053733 27.40845284346442
17.143071163232595 39.91136887953755
20.53769606057218 33.888795662052715
21.448958833449975 53.6597973419583
25.70167026207393 44.77243384157341
27.162051041486535 60.759322551215476
29.92181915698237 54.886638626406814
33.904766044736625 70.65170795259222
36.331216773128794 62.37162032564793
35.886981206346036 84.6178973821301
37.31364395082583 67.03761587612209
36.29421698606877 96.46178729839916
19.999999999999996 36.38253106920567
34.64673080073007 109.47164844678223
19.999999999999996 33.192671583296594
30.680664871298102 124.69500547281291
19.999999999999996 28.701071160418778
24.497887333474825 146.90590429784834
28.310602661160587 147.0307711297457
24.907461883683588 150.8738542809382
31.656308323214223 151.34768614252877
28.800486965220205 155.4213087787136
36.79712436482511 157.4680743288952
33.88597362609539 161.72768258449094
42.628631080040186 164.27253173014694
51.0640471237788 155.42999962830825
50.35917888606676 158.25614327185846
45.31923904072646 161.12703339254034
53.112469160457984 161.43249819304978
64.62864458599988 164.48333423207703
68.85368443982487 165.42911920890174
19.999999999999996 74.08553137029466
162.93843909774702 74.7341618582503
147.24358570496943 71.21815175063362
141.02728631200796 60.86206579090501
64.25030405938438 48.747559987741624
36.37521278714649 156.3723525011844
32.333202117127385 159.12484840479374
38.39858879684504 160.32853211853975
73.96241400570717 43.761905449025974
48.960789904085416 151.74819722884723
87.91543471771556 52.93125096788659
58.41190347797326 156.07111690462975
19.999999999999996 60.89377884946988
129.51593207836174 58.57368150241927
116.60977313972136 52.1751201063779
115.98174690969863 46.7541040720247
45.498487960490145 65.04490780643843
47.217267052097725 119.95924033538694
52.223608095905085 116.16752682596167
61.44604435508071 110.77272393252699
69.55514279924552 72.1569857157908
108.06261373998609 78.00276236161118
112.82117083003533 79.41901152528935
115.30937591820262 78.4505385952152
115.39875948947184 73.36423070892111
64.47037912021852 113.03374429911474
60.938117859524354 108.67914147200483
60.398294998803614 96.2720169598281
63.99196024905357 81.69339200592914
64.62285458494235 69.7770086330737
70.20573777580204 54.65674064972441
76.28076058250524 44.919543172677116
107.96270483207013 29.493356071412947
99.72747301977715 24.524632999770663
103.27785813248838 24.296339000540527
26.727064538497036 48.40357664501714
92.96453192311496 26.40031294313381
28.946824878186188 48.398106415009615
80.3945289881847 34.22367410541243
89.191547689066 37.35803092960284
106.69099817617918 40.32316929529036
19.999999999999996 29.709482293119045
36.10002882520054 18.295331119799368
48.485687368696624 12.931062044658972
51.15066504068603 18.785358606922937
25.546334015863646 18.805911653054107
21.21735645758766 32.97907881553647
21.565392003386226 31.82746133324665
26.975742249597843 22.023227137223383
21.133632931725845 26.187740802382493
26.793969170989623 20.84352242122942
19.06174105282056 20.984092265266597
26.44728547251944 18.934419311460577
17.326452938454334 19.320093427146038
18.852821337574813 19.121929967397577
16.32667214932483 20.257806399380737
18.82402612717383 20.375895180394746
20.146573680624034 21.413617571931482
19.29767229111005 21.854862152547575
21.26386074930842 23.023786774343858
23.28934769518565 23.603021330636604
23.196919564701272 24.813428235950845
22.42056170192704 25.650960457020894
19.92959817379433 27.520987413253817
18.986531087514656 19.999999999999996
18.54137183589545 28.851286765275418
17.102253853437745 29.645633851559626
17.554888509177818 19.999999999999996
17.555790518983642 19.999999999999996
17.51987735146349 19.999999999999996
17.33123397664571 19.999999999999996
17.20238872795614 19.999999999999996
17.71389040769982 19.999999999999996
17.57919074541035 19.999999999999996
18.111848788929233 19.999999999999996
18.055902431614438 19.999999999999996
17.896341517367127 19.999999999999996
18.36732243528357 30.663829530369394
21.15722331902422 18.77874370270956
19.28543065690415 31.08848227010757
19.141252706626283 20.54434261215059
18.889376688519647 31.580645173109563
19.356368258318355 30.79693378120566
17.587105682266277 27.59063828884432
16.81866392857 23.090510152490218
14.979085931587663 19.11289117220711
15.845034126417257 28.18995547846921
19.436869420889806 33.81309202997394
30.35355278293231 39.20270756212014
48.72692673648522 30.49592136384687
37.4467764625871 20.514282453112486
19.999999999999996 13.95491176498466
65.46936922998158 17.940942156120634
19.999999999999996 21.5428391365592
19.999999999999996 19.54016110701545
19.999999999999996 19.132312225184037
19.999999999999996 27.983882377913364
19.999999999999996 32.47314419897489
19.999999999999996 35.02339366927699
19.999999999999996 32.240642214496376
57.32561849471689 27.04077628736112
53.55271242061566 22.168016120723955
51.5964364914902 19.735942529109256
50.21735864460016 15.169364869360077
19.999999999999996 17.485858857599485
49.805249240115 14.44962438976057
19.999999999999996 18.47524037651772
49.00501471780682 16.167537376987433
19.999999999999996 21.27317845005096
47.457006070177826 19.209437525382306
19.999999999999996 24.19483556209259
30.054982749115094 22.51414496601326
19.999999999999996 26.903427325174334
41.52110877463196 26.549928843222514
29.946232071186312 29.609363849378934
41.27533664696531 28.646228333567123
28.49898224893044 27.660103672792395
29.210185458306004 28.22602987570309
25.67557070399977 19.355329469336393
19.999999999999996 18.348421503846936
21.24197469802702 17.99631504421987
13.81030796083792 25.127535878584823
18.005058761771373 8.990129408981835
17.757431532295392 7.239442688801842
15.82641442997276 3.2828038336153456
17.889269553615907 5.53197768229638
15.016149741478776 12.249609916753624
17.956256820190035 12.810288510487533
17.131284758928135 13.712228445204326
18.805199426818454 18.01581277606781
17.429512506543052 20.029689296633144
22.765281124966126 17.795823826800696
15.124698947608353 19.834348653354514
14.796748041954938 23.4425536593526
15.227598052784332 23.278254783555017
16.328754904295767 23.15462697867621
13.466036719812058 22.434633507591936
15.41754356963019 20.81040969939052
20.409180262421668 19.130019507784677
21.816432998212687 18.689194147293133
21.500959045019542 18.998885974157822
20.60771566335681 19.364319780529637
19.641230109827166 19.58650454327497
18.7570124232018 19.454446340959446
17.91931619792951 18.87516757045362
17.27045844474604 17.89795958567341
17.15830398121322 16.72055392917438
17.22676855297459 15.861087301450338
16.749249194757958 19.58016082918432
16.541049619003118 18.837334539975505
16.75099432067639 21.042625720375927
17.96825982625966 19.508205053667574
17.524802188257837 18.035279388783522
18.00402879252291 16.880624801002963
17.386651431190337 16.224340686605046
17.870325134140412 15.867619128966895
16.73246168817629 15.7945896671184
16.793019463621498 13.804125550970136
15.439472992493055 14.29247775839039
15.85183382786203 11.421507828288865
13.795849439931787 11.866494828918505
14.32744203183162 9.466069190505566
11.866088058899939 13.687228392366205
12.039299204361516 19.652148271714914
15.377541333870514 30.049190386458584
13.210843298118697 18.411243228197943
15.738195655892953 27.41315171763533
14.936629236667676 25.794466211030826
17.062400193581574 24.888772842685686
16.25708773394527 24.22459798859192
17.59777888764262 23.827312646257038
16.538201113415194 24.515350564143713
18.11041861551439 25.499394235718647
17.258361619640475 26.18567688661029
19.254760598772425 26.86910838857622
18.687359816865722 47.80345443200368
21.198679396413898 26.904658836889354
19.82569325668241 44.93291936347503
21.08316408827884 25.46975486614117
19.709115472320278 39.913141185505964
20.547544409877812 21.620700406031983
19.202486427008633 29.436340048148708
19.836687778252326 18.165556400001883
16.33990727862792 28.192601163813098
16.810771524115815 26.028377524521208
14.562122069479585 25.098826506104075
15.581854021172017 23.077799399628034
12.946732857641061 22.97609562282616
14.665154299831142 21.37206461414831
12.700435553075293 22.841105557154414
17.273421847930567 19.978900992588745
15.699937718224616 20.98010974812785
17.925042488655034 20.24746603072899
18.190951940274104 20.191202057541712
18.789478494110597 18.51799678022521
21.201084085547176 17.8105753391168
20.304455415173802 15.417534670991623
18.796827771312348 17.908572517684654
18.385324532422604 13.793775047435775
19.70212737058375 16.00917841623104
17.915669261400343 14.437816756567942
20.804224532143827 15.855892466744912
17.548515792804416 15.823370616019796
20.61072399006901 16.72381978362699
18.118611842487837 17.816256092084792
20.718072904286 18.573966903344758
20.28358493878502 19.871446003597274
24.745437961647017 21.01082571808246
23.692380676037814 20.383978505069138
37.6583916836216 21.37961144208487
28.94232389869909 20.278437538863447
37.84838266468299 21.4388961800361
32.83424389686364 19.906155687896714
36.79431944436859 19.333424822593514
34.1277239407648 16.815992773797543
34.450842949555124 16.985237982653942
31.005708320399393 15.840692775258386
29.32394392445849 17.49475596507089
29.13804538488318 18.672524373471028
26.302320837070408 20.48650779857911
25.605945230447535 23.607157220006993
25.166689830530242 25.649557274987966
24.39270597301564 26.968560956913073
24.116327236723766 17.58671478573632
23.17160256891468 10.179558264628746
22.19416546032319 6.642565733360886
3.9915745641888267 22.91973732880675
8.811489470918975 40.25352817571231
13.790440178046481 38.90394576682381
12.269467710589593 41.75072081465729
9.1758616753687 44.6217126436147
9.891434280925969 47.67952112300152
6.385906431917805 51.622669369472206
12.962663182062844 53.1053876838554
9.34259952298664 56.003962017374874
15.31235771420018 56.651145753457044
10.822634977450885 75.65709459848001
16.594631216693646 58.25948718928057
12.454312448623648 70.32500932151078
17.605062686879936 58.01677369748271
14.017935702610682 65.4091598708286
18.184403900731898 56.9670659811532
14.977776724053045 61.09347446223766
18.83788253746315 55.45011963459617
15.8812194761061 57.18994827374094
18.886605344303963 52.7973683432329
15.684966311951973 44.91581439615714
18.17287910885906 48.38022797464087
15.77626388384028 29.85858531626226
18.10819264647539 41.59793299843898
16.067242925508445 74.8171791404053
18.004171345640792 34.9416990139029
16.906656111010527 74.4530026966303
18.239880712775875 28.585937851802132
17.726133332930427 42.4764307542477
18.71049652065274 23.281156816556585
18.333730325857523 19.422093891863405
19.093570588272897 16.398064163225527
18.67587908807003 15.328557084556769
19.191873385798058 15.07139476853866
18.716532821426917 15.970762951861525
18.773490125152914 16.74696579711807
17.89696334490992 18.075090274856635
17.592528000003533 19.518965876509
16.776440852174666 22.524426257132472
16.220395237379613 19.999999999999996
15.598683772959678 24.967715149533337
14.999628534480811 19.999999999999996
14.55625850711334 27.98376983821203
14.465909007358979 19.999999999999996
14.965129828325054 31.83051689691268
16.2093280252394 19.999999999999996
18.226323955364602 19.999999999999996
20.673259735567925 43.81345363470791
23.88035277360781 19.999999999999996
25.453731266016206 19.999999999999996
26.282554651894547 52.97525413063912
28.928714203803967 19.999999999999996
28.720902032225943 19.999999999999996
28.63337020413747 55.69073061625133
29.52282223022411 19.999999999999996
30.50370636977233 19.999999999999996
28.253044510731854 19.999999999999996
26.381346282119612 19.999999999999996
23.40244207987241 19.999999999999996
20.14528046736767 19.999999999999996
18.07301923476166 19.999999999999996
17.32516189541873 19.999999999999996
18.22911063093729 19.999999999999996
