3.200320453116771 
2.378208425805374 
3.2481288503866677 
3.635792547130379 
4.628988728711186 
5.549438279040112 
6.228857472878149 
6.499918828257409 
6.828575227910914 
6.833890415970824 
6.963353640673925 
6.623901661882521 
6.58196584136338 
6.399470239578989 
6.156534807243085 
6.172175566396107 
5.880848252866286 
6.091518757070782 
5.77260613606479 
6.139887090010159 
5.754835529562172 
6.20697465459887 
5.495508681218972 
6.329588406109862 
7.1120420815248355 
6.176639412645967 
7.128140646777643 
6.1805794205543005 
7.095613700052762 
6.44822454390633 
6.673625949924605 
7.312272754820215 
7.311562009768774 
8.153773809764038 
8.854485053195067 
7.854881444823852 
6.905579618982126 
7.323920097844643 
6.729012451510196 
6.513360619174389 
6.238102051081293 
6.6541349287442895 
5.678916860709071 
6.313429120411918 
5.338289709176632 
6.030092576444865 
6.123271606998704 
5.46929828341407 
6.370508621881425 
6.7691378820226165 
6.042285739927199 
5.713351588333896 
5.603841385483083 
6.578840277844153 
5.60802425442451 
4.652540321381126 
5.636317126050569 
4.662000909348523 
5.652435920835861 
6.626889861427424 
7.560596879659 
7.803979170137221 
6.854131493331681 
5.870946698079071 
5.738599989101537 
5.226284091766236 
5.2091249207374215 
6.187407676463339 
7.144179889195906 
6.219767844873248 
6.33905330665628 
5.929351769624824 
5.20321135458579 
4.383677098274449 
3.410461631523393 
2.739713103136946 
1.8666153749569838 
1.880189837864584 
2.879433293012431 
3.616976335239481 
4.011637107322315 
4.0107398547984 
3.800674301164246 
3.4349403756762946 
2.7002304660220844 
1.8601647534643686 
1.4689554097272977 
0.8484031353454078 
1.045009313088244 
1.9032525380948055 
2.9010639743169024 
3.8814708052361713 
3.311437605037876 
4.271097162708298 
3.44010524180047 
4.26867681313949 
3.372824946717985 
2.5422002735784406 
1.8616850823873072 
1.1494587113828123 
1.4813794683106556 
2.273583141051768 
3.2726945787739155 
2.364699381270957 
3.363733422883726 
4.361113028522007 
3.6549086216094047 
3.975433079776227 
4.041629570214187 
3.8843717702074203 
4.816779445580849 
4.472425741959214 
5.443548330984834 
5.861586492927214 
5.125183455582571 
5.983537683806211 
5.080751531869128 
4.943747217081465 
5.924105504962252 
6.226480637579141 
5.4108091852498745 
5.478075839218752 
5.680921106390094 
4.848514410802677 
4.399002366283519 
4.495649078455061 
5.449583830496333 
6.401979025720125 
6.6774238884915915 
7.175913996963404 
6.926287647007483 
6.045211708877394 
6.40217790357957 
5.946722164171803 
6.129481492628446 
5.135502062351988 
6.119217696598708 
6.424168386595026 
5.912334119391935 
5.833751581270577 
5.731688065996311 
6.011435733473677 
6.544728250183618 
7.354231584925098 
7.4171471034410965 
7.294364796737206 
7.661672465490371 
8.473027191660622 
9.115694776725402 
9.530977665039105 
8.685243576116264 
7.685804191545534 
6.729317534706761 
5.7678306979320055 
5.603216330194523 
6.146730453919515 
6.812812173394855 
7.733483834216198 
6.763922912203357 
7.678007416273454 
8.202455649777255 
8.894503750194136 
9.397034837992335 
9.686104931922683 
9.839427267634164 
8.847537510820652 
8.482857404683381 
7.483700923041313 
6.501496672296497 
5.505969743305781 
5.253304762186124 
6.151476689593828 
6.99509984261465 
7.900689213437594 
8.682345159015059 
9.065681550425717 
8.065912652762837 
7.067417175421903 
7.791656693621433 
8.278081940653545 
8.556620168394394 
9.17457496852995 
9.564759706186427 
9.777768048583606 
9.324773485012587 
9.649958021144176 
9.822676636027383 
9.910985665422842 
8.915402126230981 
8.082751872893661 
7.120607622544424 
7.999031509175135 
7.0438834932588215 
7.9357085442598 
7.090698733445849 
6.3001342831165426 
5.835711712939681 
5.261877018776218 
6.237445712511657 
6.066750152593606 
6.350557208807188 
5.367327797491471 
4.462298091367226 
3.609865112338442 
4.370548320031481 
3.6192925676314465 
4.614112377229195 
5.595413434723441 
4.685831254402122 
5.6687736748006206 
4.70049664218112 
5.39984111845382 
4.621869047436176 
5.035771112574095 
4.1312279761373825 
3.34837820745861 
3.3387471463676732 
2.5913839338597286 
2.9016102518491023 
2.232640705972177 
2.5288810801627686 
3.140754063205988 
3.823239349505128 
4.423222604286176 
5.41568165959083 
6.394671833404834 
7.180631688922988 
7.314501511213192 
8.186832356214051 
8.906320781645405 
8.354727047458018 
9.031207900920162 
8.035432215270104 
7.065239483802558 
7.551442794070851 
8.349113887588164 
7.393587171868714 
7.980725488376704 
6.98930222676411 
6.004849979825072 
5.1374464811691 
5.889763296796406 
6.696591473664328 
5.75242255558174 
6.361708772687007 
5.461178309675175 
5.294192937805728 
4.9094463629755145 
5.896954854928117 
6.864308114867122 
5.971202255732041 
6.885264316644981 
5.887718923278251 
4.9648515361888625 
3.9790150698957865 
3.0964488931326084 
2.191480077006277 
1.6567599558296409 
1.5990580594282504 
1.5459469809358968 
1.412458391054801 
2.35960286948979 
3.2667611103137504 
4.264254816102563 
3.6269722761880407 
4.623054225095572 
3.785740375066097 
4.771798549923498 
4.014249359774429 
3.7656901948446984 
3.9080632795640726 
3.1856039582328646 
3.273636107792274 
4.122916895720462 
5.109976118530922 
5.4039569851166585 
6.383970348766925 
6.459907008970282 
7.403491944530053 
6.889223094174197 
7.801879158244045 
6.896507798903916 
7.727427116016205 
6.735402744547856 
6.104522301559183 
5.136336900065053 
4.292133383662382 
3.3210718021540946 
3.1025378853992467 
4.011950167529452 
3.048120892539555 
2.336908381437624 
1.5299698179711796 
2.4425709627608447 
3.3114995799617706 
4.131090125207381 
3.1692335272704653 
2.3012671466456154 
1.5524049136996427 
1.4800611496415053 
2.4266796771170496 
3.1876701714872 
4.1852842801141685 
4.900310356801347 
5.888147033733822 
6.092393797521714 
7.052970950664127 
7.199280025722946 
8.060219686047814 
8.726749321521739 
9.21293808296576 
9.556461154610234 
9.764906365759964 
9.881589585927845 
9.345526172524497 
9.658103709308993 
8.92666576002034 
9.407829010747111 
9.413756862066958 
9.692296647100632 
9.82744342724919 
8.945747095879241 
9.391266214955976 
9.678349733950684 
9.772435233543508 
9.876968186554436 
9.931655596833439 
9.963838894948413 
8.963933033888123 
7.964188885278801 
7.152566576569058 
8.034340753226287 
8.78802526027258 
9.319381872878258 
9.611630774759174 
8.611894637246442 
9.199852069319777 
8.202478861280802 
8.911115414382854 
9.400167477039819 
8.400332883783662 
7.400782367706957 
6.413119499789053 
7.359210379746408 
8.224272169185687 
8.931667418813579 
9.404022018774324 
8.653889994417707 
7.654238887006701 
6.655186498814864 
5.672925794360026 
6.28513991433791 
7.236873180706502 
8.116324537671733 
8.842753349699992 
9.285180077290505 
9.609370620144794 
9.648232122578642 
9.772318212385136 
8.804253063241461 
7.949790616850225 
7.510990812649162 
6.55988686409828 
6.912883122867004 
6.075384987556529 
6.863318292603112 
7.36106236851814 
8.129540809068658 
8.65894938916361 
7.932765853967609 
6.94979712369 
5.997414642266747 
5.019104118343832 
4.127773780597077 
3.379565007786793 
2.9362944021848953 
2.476663314871936 
2.2037221841914407 
2.1294059314948193 
1.8526476490671144 
1.964422713448255 
1.5870330923687392 
1.808845463097918 
1.421489526835514 
1.0729533346186904 
0.809302134014623 
0.7711739743544729 
0.6946853861057719 
1.3754022376229529 
1.5146422393622248 
2.4621893811865796 
2.143880253319163 
3.016970465281964 
4.004783126090965 
3.260737870239922 
3.022431194948291 
3.072368003135282 
3.2335590534369802 
3.424362397434143 
3.4821406184883497 
3.6396625725208827 
3.630958783465812 
3.670711984605935 
3.7340840637327344 
4.5080714430782445 
3.7581786462763 
4.5372851133042325 
4.582698233755863 
5.441734411997558 
6.134863368696045 
6.757938492151112 
6.931952591617793 
6.239852125998243 
6.940671234708811 
7.809043628485902 
8.600371811960049 
7.872266033062026 
7.954669357005931 
7.30471813614274 
6.346900611475449 
7.286194574018285 
7.550812951415417 
8.325805092869004 
9.0099810074328 
9.46811369509178 
9.72561306132512 
9.188575895292303 
8.264582006874448 
7.378462914084728 
6.847773286328149 
6.204193342999129 
5.505120216166531 
5.787423005264099 
5.951460460482846 
5.661518721873543 
6.442315846900573 
5.657820930609929 
6.60098161252416 
5.630535212175467 
6.582553997593808 
5.697307687118754 
5.683078734569971 
4.952865406082681 
4.82022071533851 
3.8413391492852624 
3.1692012323549124 
2.919793762784552 
2.8372843839884125 
3.835558342917169 
3.1768677717931766 
4.052081546655163 
4.993341714602975 
4.494994821741067 
5.472647069241274 
4.484226793830247 
3.609276449247996 
2.667891588557634 
1.8144089558970786 
1.3269530371622182 
1.2094421690648627 
1.9680732812475992 
2.568830944222091 
3.2103461154351254 
4.147951759578366 
4.404263069386822 
3.8098086707856003 
3.8720710165822414 
3.9905062699756604 
4.034540239678538 
4.210822480915179 
4.443493275101546 
4.570501105138219 
4.3497925170859135 
4.152736084298158 
4.0471933579106905 
4.501016475207582 
4.453417666512044 
4.223542530886512 
3.5414890232394916 
3.183885656548579 
2.872705440584727 
2.665592450695167 
2.4783534208768154 
2.712934799297078 
2.768705081136828 
2.890302612215507 
2.891535126992552 
3.752186237337767 
2.9448650151091944 
3.9401871364456786 
4.694101432579034 
3.903413130359655 
3.220567914619726 
2.8813261776372006 
3.609052157249608 
3.601861766147733 
3.799792495328241 
3.6597457122001202 
3.773946762042779 
3.610954844515041 
3.775868674979126 
3.478684366367557 
4.4749079866402 
3.529852299778567 
3.8323614870421046 
2.937274033050402 
3.3942353297954977 
2.532376545738792 
1.9337044693053944 
1.4380224661715793 
2.375836458713266 
2.0256983859082407 
3.009147544871853 
2.52275535496597 
3.514387972918666 
4.094921358480678 
5.088926735840434 
4.250248748303595 
5.0590411878564305 
5.430569911217604 
4.61390648445733 
4.892610738271159 
4.258612856189445 
4.4249725037657495 
3.5300272466570255 
4.047250398215669 
3.941346700530512 
4.0758172576442195 
3.434826836753616 
3.298385345443547 
3.055071885953619 
2.8310644285109405 
2.4429852077595386 
2.306099245140503 
3.030856639596303 
2.8438068213276497 
3.5375719169383375 
3.635937444701571 
4.178433388398157 
4.173243786198751 
4.449491568532307 
4.474486087191779 
4.882309277212055 
4.883812331460876 
5.198418072448249 
5.104831541408248 
4.926976481028294 
4.736525254553544 
4.362751559058678 
4.255336962965169 
3.6828954271548193 
4.178275439610953 
4.8276005854270005 
5.8163221205226 
6.783266942053087 
5.789660645223641 
6.753294842525881 
7.677268787021609 
7.141821766812129 
8.033300908577276 
7.035793751905491 
7.937598206152977 
6.941434620154681 
7.72797974661032 
6.749272545352543 
7.036962914322522 
6.067277693378637 
5.86110024479172 
4.93827136593787 
5.448539522829657 
4.572479099020361 
4.457934053837526 
3.6696176249341055 
3.6561125587560195 
2.9255567985282234 
3.2034653612165265 
2.5081549138483625 
3.1296258150771323 
2.4087864364986946 
2.1561298952481347 
1.5883426347630927 
1.5280698924212712 
1.1076645085237944 
1.1570473318842278 
0.8860315048443177 
0.9230896531366386 
0.624679721992749 
0.4450270183811205 
0.251912467773574 
0.15580359133703747 
0.08166115186283458 
0.04588526703162556 
0.03207963849415442 
0.017774438947583328 
0.01160312487995736 
0.006236384974282456 
0.004626012545599428 
0.0027437253650530375 
0.0025246015322839756 
0.3534304410545423 
1.326763532629171 
1.7622436113916358 
2.447634320859026 
3.4462072237968178 
3.959692998800374 
4.6022762635486965 
5.5470252135085065 
5.43101175844931 
5.646398932225284 
5.778148253738215 
5.7982475673705105 
5.608921983246474 
5.246788961316721 
5.172605668247241 
5.1051854064759965 
