1.2251466162793183e-09 
0.9999092054876305 
1.999621560042654 
2.994830011742539 
3.991611927622036 
4.986024906008897 
5.94671717134516 
6.903963987737731 
7.816871411303163 
8.480896704641793 
8.846511582977621 
9.002079995095151 
8.767563238723351 
8.580832122576934 
8.863128543376167 
8.476413936700101 
8.237086687519804 
7.584129069720056 
6.9529671851133505 
6.435965360083432 
5.931974453559893 
6.414231435356823 
6.614976758058569 
6.708853806240547 
6.696907440501925 
6.677388600537388 
7.330133266734897 
7.915881862909005 
8.567240346804276 
9.147752565130304 
9.395754114698493 
9.445725120958302 
8.93136421841672 
8.643464607715002 
8.764833173980934 
8.127648291860167 
8.81814749489683 
8.302475503864947 
7.950323067435049 
7.460873835166258 
7.271833584198418 
6.3790207524449825 
5.481962353824406 
